{
  "type": "service_account",
  "project_id": "data-aileron-208718",
  "private_key_id": "d35a0bece7a4068e74d92fd3d7cdf2c261cfdaa2",
  "private_key": "-----BEGIN PRIVATE KEY-----\nMIIEvgIBADANBgkqhkiG9w0BAQEFAASCBKgwggSkAgEAAoIBAQDLOqSAATr3ZozB\nq5A5wWIRRDq3hRjJWsmOUgSsrOXLK551oYYOHM9Z/5tNTXEu7Q5UsFrEZrs5Hmx9\nl6V4KOhh9eAbcXV3XfUc5UKrF2JQIiCmTPyPj+faQnreoqEkJwqFyXO89wv0MA2d\nxe4Omv0AuzcmkyiDNOP/1Ofxg9KUyzYJPcEDLMqbDQaK4YFTBMnkSMVL6vUBq/KF\njGIIeT2EA9/pH/+vbsjLR2y1UNPxX27FjyijYq9AxyeQEzEMvHCYIOskWEcEaoD0\nImYOrRG2AsqZbIn7696B0dYrkyGtzvxjwQ5gXEYjVveI2qItK3FPxJFjHcBh+BQX\nHWnxBYCrAgMBAAECggEAQS2RFXaPjUnn6bMWwdcqFwSNWk9G6EkELG9UjXa0Cil2\nnB5OCpelzqTiD3Q/UP/5ISMgMS4LbKG7xLnOeU+RW92J3vNP65UIKBjE/W81+iI/\n22YEeBx8jOzWUDHTQW99+fNmeZu3yzxgGZIhq7B8ZPAmG2qFyzK6ztFfA/+1mT9S\nt59zE2TU5fdKgYqMueEu6zl7SRuCGzLVsVFCszB7NR8DgJgkhojDQe1lvzxNm1sr\nYqNBKIYh4QHq1YAoWGr36jOBXvaQOh1yRlByiYo5eICymzAjjihfsTM5rC04O7WY\nDNzb2q98FGbH+WBdodcZROEhaWBO+X3+jrWC5RWlgQKBgQDrYvAz4vH+svIEqUio\nafH+XncaN8Mn+hCts6yc4Z/Yr9tb4gq3BPAMzwHmJGkZWuHoC717cEZK6ysr4c25\n+cGrYqHJNkgZ+fO1AkSGq7tI49JV0QwBSQr/u3LJjC5hQpc1ez98NiHuI2T1R+nh\nUOfzeTglGRKJsJnfNYWuTachgQKBgQDdBsbUJE4PsgyqgXrbhhulY5nqVUoHi3cV\niUPegSdaAXuE6lyNW4xruYTCwbiTrw2zegH1pcFcl6y7ch2daLJhztjAD1nqeGV1\ny1VW5oHEZzNJYa/I3TdPy8MHPxiAXcxDYTJEF5z1vbatOyUT04pF14rat4GwFz7w\nyCLd9aLgKwKBgQC34dGd5xN/ElHofEpLboBiY2+NprQpPbvbxnn5EHUr9K1biSkv\nsobIqspj/FuyOAI0oT9D+AChtDdEj6CEQW0fMu0KYAJRcKcG55+ayPuExJzi92z2\ncBZMkyXn9z+gMUIowIBmy28UNsg+qRA3OVoKJM9Mg9qsf66k5Y3qDbWbgQKBgQCu\nA2DUsoSWzNo1/1zHqmznqGQMXvu6tu2ZkglSC6L8tMAXpCAb1qDWSygf4T69XwvN\nathSGx8CFBQVO8HfJQeUA7MYer2S4RkYRW65zR8LjyiMtJEd9jRO6aBxexaCMdbY\nkZRukZysyKEi/7awRlLNq+YRTnqXNaYDEb6Ju5NxIwKBgGr0/B9Uk/Hse0Fq0Ex/\n7STzmDEkhUWo33Jtm1CeUSDQTc46w5FEltG5t91lsN8zVwlDD97JSiMtZHg/dhmH\n7BvvkDf4j/NJc7cNTwMzDvKMagQSNPvwXBqcdzK1SZMBSC4zene+Aa5dBRju+eqY\nCGJzfv2BQSsSF2hH+ZhdrXG/\n-----END PRIVATE KEY-----\n",
  "client_email": "checker@data-aileron-208718.iam.gserviceaccount.com",
  "client_id": "101934267855550715320",
  "auth_uri": "https://accounts.google.com/o/oauth2/auth",
  "token_uri": "https://oauth2.googleapis.com/token",
  "auth_provider_x509_cert_url": "https://www.googleapis.com/oauth2/v1/certs",
  "client_x509_cert_url": "https://www.googleapis.com/robot/v1/metadata/x509/checker%40data-aileron-208718.iam.gserviceaccount.com"
}
